<?xml version="1.0" encoding="UTF-8" standalone="no"?>
<svg
   version="1.1"
   viewBox="-0.146 -0.093999997 212 212"
   fill="none"
   stroke="none"
   stroke-linecap="square"
   stroke-miterlimit="10"
   id="svg3"
   sodipodi:docname="plusot_square_2024.svg"
   width="212"
   height="212"
   inkscape:version="1.3.2 (091e20e, 2023-11-25)"
   inkscape:export-filename="plusot_square_2024_256.png"
   inkscape:export-xdpi="97.523811"
   inkscape:export-ydpi="97.523811"
   xmlns:inkscape="http://www.inkscape.org/namespaces/inkscape"
   xmlns:sodipodi="http://sodipodi.sourceforge.net/DTD/sodipodi-0.dtd"
   xmlns="http://www.w3.org/2000/svg"
   xmlns:svg="http://www.w3.org/2000/svg">
  <defs
     id="defs3" />
  <sodipodi:namedview
     id="namedview3"
     pagecolor="#ffffff"
     bordercolor="#000000"
     borderopacity="0.25"
     inkscape:showpageshadow="2"
     inkscape:pageopacity="0.0"
     inkscape:pagecheckerboard="0"
     inkscape:deskcolor="#d1d1d1"
     inkscape:zoom="1.1132075"
     inkscape:cx="260.95764"
     inkscape:cy="106"
     inkscape:window-width="1752"
     inkscape:window-height="1037"
     inkscape:window-x="0"
     inkscape:window-y="534"
     inkscape:window-maximized="0"
     inkscape:current-layer="svg3" />
  <clipPath
     id="p.0">
    <path
       d="M 0,0 H 1024 V 768 H 0 Z"
       clip-rule="nonzero"
       id="path1" />
  </clipPath>
  <path
     fill="#4ca659"
     d="m -0.146,-0.094 h 212 v 212 h -212 z"
     fill-rule="evenodd"
     id="path2"
     style="stroke-width:0.636066"
     sodipodi:nodetypes="ccccc" />
  <path
     fill="#ffffff"
     d="m 39.459068,8.285661 c 16.104,0 28.448,2.933 37.031,8.797 8.594,5.865 12.891,15.037 12.891,27.516 0,6.51 -1.146,12.088 -3.438,16.734 -2.291,4.636 -5.625,8.422 -10,11.36 -4.375,2.927 -9.708,5.083 -16,6.468 -6.291,1.386 -13.494,2.078 -21.609,2.078 h -10.078 V 120.28566 H 8.1000678 V 11.004661 c 4.6870002,-1.062 9.8850002,-1.781 15.5930002,-2.156 5.709,-0.375 10.964,-0.563 15.766,-0.563 z m 1.438,17.438 c -5.115,0 -9.329,0.161 -12.641,0.484 v 37.766 h 9.766 c 9.708,0 17.171,-1.36 22.39,-4.078 5.229,-2.73 7.844,-7.881 7.844,-15.453 0,-3.625 -0.693,-6.662 -2.078,-9.11 -1.386,-2.458 -3.307,-4.38 -5.766,-5.765 -2.448,-1.386 -5.354,-2.37 -8.719,-2.954 -3.354,-0.593 -6.953,-0.89 -10.796,-0.89 z"
     fill-rule="nonzero"
     id="path3"
     sodipodi:nodetypes="scscccscccccssccscscccs" />
  <path
     d="m 64.878677,181.46519 c -5.76,-0.0936 -10.536,-0.66599 -14.328,-1.71538 -3.781,-1.05929 -6.792,-2.57397 -9.031,-4.54225 -2.24,-1.96918 -3.813,-4.41535 -4.719,-7.34032 -0.906,-2.93486 -1.359,-6.27203 -1.359,-10.01238 V 71.174125 l 19.359,-2.882668 v 86.258633 c 0,2.10958 0.187,3.88526 0.562,5.32974 0.375,1.43369 1.042,2.65767 2,3.67016 0.959,1.00259 2.261,1.77208 3.907,2.30578 1.656,0.52559 3.765,0.92878 6.328,1.20958 z"
     style="fill:#ffffff;fill-rule:nonzero;stroke-width:0.948678"
     id="path1-3" />
  <path
     d="m 132.21977,203.07189 c -3.729,0.958 -8.584,1.942 -14.563,2.953 -5.969,1.021 -12.526,1.531 -19.672011,1.531 -6.717997,0 -12.342997,-0.958 -16.874997,-2.875 -4.531,-1.927 -8.161,-4.594 -10.89,-8 -2.719,-3.417 -4.667,-7.495 -5.844,-12.234 -1.167,-4.75 -1.75,-9.953 -1.75,-15.61 v -46.89 h 19.359 v 43.844 c 0,8.958 1.308,15.359 3.922,19.203 2.615,3.843 7.171997,5.765 13.671997,5.765 2.354001,0 4.839011,-0.104 7.453011,-0.312 2.615,-0.219 4.557,-0.49 5.828,-0.813 v -67.687 h 19.36 z"
     style="fill:#ffffff;fill-rule:nonzero"
     id="path1-9" />
  <path
     d="m 113.33624,122.10173 c 5.114,0 8.844,-0.609 11.187,-1.828 2.355,-1.229 3.532,-3.338 3.532,-6.32799 0,-2.771 -1.256,-5.06201 -3.766,-6.87501 -2.5,-1.823 -6.63,-3.797 -12.391,-5.922 -3.52,-1.281002 -6.75,-2.640002 -9.687,-4.078002 -2.927002,-1.448 -5.458002,-3.13 -7.594002,-5.047 -2.135,-1.916 -3.818,-4.234 -5.047,-6.953 -1.219,-2.729 -1.828,-6.062 -1.828,-10 0,-7.687 2.823,-13.745 8.469,-18.172 5.656002,-4.427 13.338002,-6.64 23.047002,-6.64 4.906,0 9.599,0.453 14.078,1.359 4.479,0.906 7.838,1.786 10.078,2.641 l -3.516,15.687 c -2.135,-0.958 -4.859,-1.838 -8.172,-2.64 -3.302,-0.803 -7.14,-1.204 -11.515,-1.204 -3.948,0 -7.151,0.667 -9.61,2 -2.447,1.334 -3.671,3.386 -3.671,6.157 0,1.385 0.239,2.614 0.718,3.687 0.48,1.063 1.308,2.047 2.485,2.953 1.177,0.907 2.724,1.813 4.64,2.719 1.917,0.906 4.266,1.844 7.047,2.813 4.584,1.697 8.474,3.375 11.672,5.031 3.198,1.656 5.839,3.526 7.922,5.609 2.083,2.073 3.604,4.443002 4.562,7.110002 0.959,2.666 1.438,5.86901 1.438,9.60901 0,7.99999 -2.964,14.05199 -8.891,18.15599 -5.916,4.104 -14.364,6.156 -25.343,6.156 -7.365,0 -13.287002,-0.614 -17.766002,-1.843 -4.479,-1.219 -7.625,-2.203 -9.438,-2.953 l 3.36,-16.157 c 2.875,1.167 6.312,2.287 10.312,3.36 4.000002,1.062 8.563002,1.593 13.688002,1.593 z"
     style="fill:#ffffff;fill-rule:nonzero"
     id="path1-2" />
  <path
     d="m 207.53117,57.40681 c 0,6.615 -0.964,12.641 -2.891,18.079 -1.917,5.437 -4.635,10.078 -8.156,13.921 -3.511,3.844 -7.75,6.834 -12.719,8.969 -4.958,2.125 -10.422,3.188 -16.391,3.188 -5.979,0 -11.421,-1.063 -16.328,-3.188 -4.906,-2.135 -9.119,-5.125 -12.64,-8.969 -3.521,-3.843 -6.266,-8.484 -8.235,-13.921 -1.968,-5.438 -2.953,-11.464 -2.953,-18.079 0,-6.614 0.985,-12.613997 2.953,-17.999997 1.969,-5.385 4.74,-9.994 8.313,-13.828 3.573,-3.843 7.812,-6.807 12.719,-8.89 4.916,-2.084 10.307,-3.125 16.171,-3.125 5.865,0 11.276,1.041 16.235,3.125 4.958,2.083 9.198,5.047 12.719,8.89 3.52,3.834 6.265,8.443 8.234,13.828 1.979,5.386 2.969,11.385997 2.969,17.999997 z m -19.844,0 c 0,-8.322997 -1.787,-14.905997 -5.359,-19.749997 -3.573,-4.854 -8.558,-7.281 -14.954,-7.281 -6.406,0 -11.395,2.427 -14.968,7.281 -3.573,4.844 -5.36,11.427 -5.36,19.749997 0,8.427 1.787,15.094 5.36,20 3.573,4.907 8.562,7.36 14.968,7.36 6.396,0 11.381,-2.453 14.954,-7.36 3.572,-4.906 5.359,-11.573 5.359,-20 z"
     style="fill:#ffffff;fill-rule:nonzero"
     id="path1-27" />
  <path
     d="m 151.92611,98.089237 19.359,-3.188 v 25.266003 h 29.766 v 16.172 h -29.766 v 34.078 c 0,6.719 1.068,11.521 3.204,14.406 2.135,2.875 5.76,4.313 10.875,4.313 3.52,0 6.64,-0.37 9.359,-1.11 2.719,-0.75 4.88,-1.448 6.484,-2.094 l 3.203,15.36 c -2.239,0.958 -5.177,1.942 -8.812,2.953 -3.625,1.021 -7.891,1.531 -12.797,1.531 -5.969,0 -10.953,-0.797 -14.953,-2.39 -4,-1.605 -7.177,-3.928 -9.531,-6.969 -2.344,-3.042 -3.995,-6.719 -4.953,-11.031 -0.959,-4.323 -1.438,-9.261 -1.438,-14.813 z"
     style="fill:#ffffff;fill-rule:nonzero"
     id="path1-90" />
</svg>
